<svg xmlns="http://www.w3.org/2000/svg" width="22" height="22" viewBox="0 0 22 22">
    <path fill="#4BA0FE" fill-rule="nonzero" d="M11 0C4.925 0 0 4.925 0 11s4.925 11 11 11 11-4.925 11-11C21.982 4.932 17.068.018 11 0zm5.5 11.917h-4.583V16.5h-1.834v-4.583H5.5v-1.834h4.583V5.5h1.834v4.583H16.5v1.834z"/>
</svg>
