<svg xmlns="http://www.w3.org/2000/svg" width="22" height="24" viewBox="0 0 22 24">
    <g fill="none" fill-rule="evenodd" stroke="#4BA0FE" stroke-linecap="round" stroke-linejoin="round" stroke-width="2">
        <path d="M14 6h7l-2 6 2 6H8"/>
        <path d="M1 2h13v12H1M1 1v22"/>
    </g>
</svg>
