<svg xmlns="http://www.w3.org/2000/svg" width="173" height="24" viewBox="0 0 173 24">
    <g fill="none" fill-rule="nonzero">
        <path fill="#FFF" d="M37.52 8.432V18h-1.808V8.432h-3.328v-1.6h8.464v1.6H37.52zM42.48 18V9.68h1.744v1.6h.08c.117-.427.363-.8.736-1.12.373-.32.89-.48 1.552-.48h.464v1.68h-.688c-.693 0-1.224.112-1.592.336-.368.224-.552.555-.552.992V18H42.48zm12.224 0c-.459 0-.81-.13-1.056-.392-.245-.261-.395-.595-.448-1h-.08c-.16.523-.453.917-.88 1.184-.427.267-.944.4-1.552.4-.864 0-1.528-.224-1.992-.672-.464-.448-.696-1.05-.696-1.808 0-.832.301-1.456.904-1.872.603-.416 1.485-.624 2.648-.624h1.504v-.704c0-.512-.139-.907-.416-1.184-.277-.277-.71-.416-1.296-.416-.49 0-.89.107-1.2.32-.31.213-.57.485-.784.816l-1.04-.944c.277-.47.667-.856 1.168-1.16.501-.304 1.157-.456 1.968-.456 1.077 0 1.904.25 2.48.752.576.501.864 1.221.864 2.16v4.176h.88V18h-.976zm-3.52-1.136c.544 0 .992-.12 1.344-.36.352-.24.528-.563.528-.968v-1.2h-1.472c-1.205 0-1.808.373-1.808 1.12v.288c0 .373.125.653.376.84.25.187.595.28 1.032.28zM57.392 18V9.68h1.744v1.376h.08c.181-.448.456-.821.824-1.12.368-.299.872-.448 1.512-.448.853 0 1.517.28 1.992.84.475.56.712 1.357.712 2.392V18h-1.744v-5.056c0-1.301-.523-1.952-1.568-1.952-.224 0-.445.03-.664.088a1.882 1.882 0 0 0-.584.264c-.17.117-.307.267-.408.448a1.291 1.291 0 0 0-.152.64V18h-1.744zm11.92.192c-.79 0-1.45-.139-1.984-.416a4.352 4.352 0 0 1-1.392-1.152l1.12-1.024c.31.373.653.664 1.032.872.379.208.819.312 1.32.312.512 0 .893-.099 1.144-.296.25-.197.376-.472.376-.824a.955.955 0 0 0-.264-.68c-.176-.187-.483-.307-.92-.36l-.768-.096c-.853-.107-1.523-.355-2.008-.744-.485-.39-.728-.968-.728-1.736 0-.405.075-.765.224-1.08.15-.315.36-.581.632-.8.272-.219.597-.387.976-.504a4.23 4.23 0 0 1 1.256-.176c.747 0 1.357.117 1.832.352.475.235.899.56 1.272.976L71.36 11.84a2.809 2.809 0 0 0-.84-.664 2.475 2.475 0 0 0-1.192-.28c-.48 0-.835.096-1.064.288a.934.934 0 0 0-.344.752c0 .32.101.56.304.72.203.16.528.277.976.352l.768.096c.917.139 1.587.408 2.008.808.421.4.632.936.632 1.608 0 .405-.077.77-.232 1.096a2.406 2.406 0 0 1-.664.84 3.108 3.108 0 0 1-1.04.544 4.505 4.505 0 0 1-1.36.192zm7.04-.192c-.597 0-1.043-.152-1.336-.456-.293-.304-.44-.728-.44-1.272V6.16h1.744v10.416h1.152V18h-1.12zm8.88 0c-.459 0-.81-.13-1.056-.392-.245-.261-.395-.595-.448-1h-.08c-.16.523-.453.917-.88 1.184-.427.267-.944.4-1.552.4-.864 0-1.528-.224-1.992-.672-.464-.448-.696-1.05-.696-1.808 0-.832.301-1.456.904-1.872.603-.416 1.485-.624 2.648-.624h1.504v-.704c0-.512-.139-.907-.416-1.184-.277-.277-.71-.416-1.296-.416-.49 0-.89.107-1.2.32-.31.213-.57.485-.784.816l-1.04-.944c.277-.47.667-.856 1.168-1.16.501-.304 1.157-.456 1.968-.456 1.077 0 1.904.25 2.48.752.576.501.864 1.221.864 2.16v4.176h.88V18h-.976zm-3.52-1.136c.544 0 .992-.12 1.344-.36.352-.24.528-.563.528-.968v-1.2h-1.472c-1.205 0-1.808.373-1.808 1.12v.288c0 .373.125.653.376.84.25.187.595.28 1.032.28zM90.224 18c-.608 0-1.067-.157-1.376-.472-.31-.315-.464-.76-.464-1.336v-5.088h-1.296V9.68h.704c.288 0 .488-.064.6-.192.112-.128.168-.336.168-.624V7.408h1.568V9.68h1.744v1.424h-1.744v5.472h1.616V18h-1.52zm4.416-9.808c-.363 0-.627-.085-.792-.256a.904.904 0 0 1-.248-.656v-.272c0-.267.083-.485.248-.656.165-.17.43-.256.792-.256.363 0 .624.085.784.256.16.17.24.39.24.656v.272a.92.92 0 0 1-.24.656c-.16.17-.421.256-.784.256zm-.88 1.488h1.744V18H93.76V9.68zm7.504 8.512a3.973 3.973 0 0 1-1.576-.304 3.302 3.302 0 0 1-1.208-.872 4.007 4.007 0 0 1-.768-1.376 5.618 5.618 0 0 1-.272-1.8c0-.661.09-1.261.272-1.8.181-.539.437-.997.768-1.376.33-.379.733-.67 1.208-.872.475-.203 1-.304 1.576-.304.576 0 1.101.101 1.576.304.475.203.877.493 1.208.872.33.379.587.837.768 1.376.181.539.272 1.139.272 1.8s-.09 1.261-.272 1.8a4.007 4.007 0 0 1-.768 1.376c-.33.379-.733.67-1.208.872-.475.203-1 .304-1.576.304zm0-1.44c.597 0 1.077-.184 1.44-.552.363-.368.544-.92.544-1.656v-1.408c0-.736-.181-1.288-.544-1.656-.363-.368-.843-.552-1.44-.552s-1.077.184-1.44.552c-.363.368-.544.92-.544 1.656v1.408c0 .736.181 1.288.544 1.656.363.368.843.552 1.44.552zm5.76 1.248V9.68h1.744v1.376h.08c.181-.448.456-.821.824-1.12.368-.299.872-.448 1.512-.448.853 0 1.517.28 1.992.84.475.56.712 1.357.712 2.392V18h-1.744v-5.056c0-1.301-.523-1.952-1.568-1.952-.224 0-.445.03-.664.088a1.882 1.882 0 0 0-.584.264c-.17.117-.307.267-.408.448a1.291 1.291 0 0 0-.152.64V18h-1.744zm16.528.192c-.939 0-1.736-.17-2.392-.512a5.329 5.329 0 0 1-1.688-1.376l1.248-1.168c.395.48.83.843 1.304 1.088.475.245 1.016.368 1.624.368.715 0 1.253-.16 1.616-.48.363-.32.544-.752.544-1.296 0-.437-.128-.784-.384-1.04s-.71-.448-1.36-.576l-.992-.176c-1.088-.203-1.904-.56-2.448-1.072s-.816-1.216-.816-2.112c0-.49.093-.936.28-1.336.187-.4.448-.736.784-1.008a3.64 3.64 0 0 1 1.224-.632 5.43 5.43 0 0 1 1.616-.224c.843 0 1.573.147 2.192.44a4.395 4.395 0 0 1 1.584 1.272l-1.264 1.12a3.287 3.287 0 0 0-1.056-.896c-.416-.224-.933-.336-1.552-.336-.64 0-1.136.128-1.488.384-.352.256-.528.63-.528 1.12 0 .47.144.819.432 1.048.288.23.736.403 1.344.52l.992.208c1.12.213 1.939.576 2.456 1.088.517.512.776 1.216.776 2.112 0 .523-.09.997-.272 1.424a3 3 0 0 1-.792 1.096c-.347.304-.77.539-1.272.704-.501.165-1.072.248-1.712.248zm9.36 0c-.597 0-1.13-.101-1.6-.304a3.318 3.318 0 0 1-1.2-.872 3.908 3.908 0 0 1-.76-1.376 5.775 5.775 0 0 1-.264-1.8c0-.661.088-1.261.264-1.8.176-.539.43-.997.76-1.376.33-.379.73-.67 1.2-.872.47-.203 1.003-.304 1.6-.304.608 0 1.144.107 1.608.32a3.2 3.2 0 0 1 1.16.888c.31.379.541.819.696 1.32.155.501.232 1.04.232 1.616v.656h-5.712v.272c0 .64.19 1.165.568 1.576.379.41.92.616 1.624.616.512 0 .944-.112 1.296-.336.352-.224.65-.528.896-.912l1.024 1.008c-.31.512-.757.92-1.344 1.224-.587.304-1.27.456-2.048.456zm0-7.344c-.299 0-.573.053-.824.16-.25.107-.464.256-.64.448a2.014 2.014 0 0 0-.408.688c-.096.267-.144.56-.144.88v.112h3.872v-.16c0-.64-.165-1.155-.496-1.544-.33-.39-.784-.584-1.36-.584zM138.544 18V9.68h1.744v1.6h.08c.117-.427.363-.8.736-1.12.373-.32.89-.48 1.552-.48h.464v1.68h-.688c-.693 0-1.224.112-1.592.336-.368.224-.552.555-.552.992V18h-1.744zm7.936 0l-2.832-8.32h1.728l1.264 3.792.848 2.912h.096l.848-2.912 1.296-3.792h1.664L148.528 18h-2.048zm7.264-9.808c-.363 0-.627-.085-.792-.256a.904.904 0 0 1-.248-.656v-.272c0-.267.083-.485.248-.656.165-.17.43-.256.792-.256.363 0 .624.085.784.256.16.17.24.39.24.656v.272a.92.92 0 0 1-.24.656c-.16.17-.421.256-.784.256zm-.88 1.488h1.744V18h-1.744V9.68zm7.456 8.512c-.597 0-1.13-.101-1.6-.304a3.173 3.173 0 0 1-1.184-.872 3.953 3.953 0 0 1-.736-1.376 5.942 5.942 0 0 1-.256-1.8c0-.661.085-1.261.256-1.8.17-.539.416-.997.736-1.376.32-.379.715-.67 1.184-.872.47-.203 1.003-.304 1.6-.304.832 0 1.515.187 2.048.56.533.373.923.87 1.168 1.488l-1.44.672a1.802 1.802 0 0 0-.616-.92c-.293-.23-.68-.344-1.16-.344-.64 0-1.123.2-1.448.6-.325.4-.488.92-.488 1.56v1.488c0 .64.163 1.16.488 1.56.325.4.808.6 1.448.6.512 0 .92-.125 1.224-.376.304-.25.547-.584.728-1l1.328.704c-.277.683-.693 1.205-1.248 1.568s-1.232.544-2.032.544zm8.208 0c-.597 0-1.13-.101-1.6-.304a3.318 3.318 0 0 1-1.2-.872 3.908 3.908 0 0 1-.76-1.376 5.775 5.775 0 0 1-.264-1.8c0-.661.088-1.261.264-1.8.176-.539.43-.997.76-1.376.33-.379.73-.67 1.2-.872.47-.203 1.003-.304 1.6-.304.608 0 1.144.107 1.608.32a3.2 3.2 0 0 1 1.16.888c.31.379.541.819.696 1.32.155.501.232 1.04.232 1.616v.656h-5.712v.272c0 .64.19 1.165.568 1.576.379.41.92.616 1.624.616.512 0 .944-.112 1.296-.336.352-.224.65-.528.896-.912l1.024 1.008c-.31.512-.757.92-1.344 1.224-.587.304-1.27.456-2.048.456zm0-7.344c-.299 0-.573.053-.824.16-.25.107-.464.256-.64.448a2.014 2.014 0 0 0-.408.688c-.096.267-.144.56-.144.88v.112h3.872v-.16c0-.64-.165-1.155-.496-1.544-.33-.39-.784-.584-1.36-.584z"/>
        <g fill="#4BA0FE">
            <path d="M2 1a1 1 0 1 0-2 0v22a1 1 0 1 0 2 0V1zM19 12l3-7h-7V2a1 1 0 0 0-1-1H5a1 1 0 0 0-1 1v12a1 1 0 0 0 1 1h7l-4.941 3.294A.989.989 0 0 0 8 19h14l-3-7z"/>
        </g>
    </g>
</svg>
